\BOOKMARK [1][-]{section.1}{Constructing the World}{}% 1
\BOOKMARK [1][-]{section.2}{Time Complexity Analysis}{}% 2
\BOOKMARK [1][-]{section.3}{Program Implementation}{}% 3
\BOOKMARK [1][-]{section.4}{Discussion}{}% 4
