\relax 
\providecommand\hyper@newdestlabel[2]{}
\providecommand\HyperFirstAtBeginDocument{\AtBeginDocument}
\HyperFirstAtBeginDocument{\ifx\hyper@anchor\@undefined
\global\let\oldcontentsline\contentsline
\gdef\contentsline#1#2#3#4{\oldcontentsline{#1}{#2}{#3}}
\global\let\oldnewlabel\newlabel
\gdef\newlabel#1#2{\newlabelxx{#1}#2}
\gdef\newlabelxx#1#2#3#4#5#6{\oldnewlabel{#1}{{#2}{#3}}}
\AtEndDocument{\ifx\hyper@anchor\@undefined
\let\contentsline\oldcontentsline
\let\newlabel\oldnewlabel
\fi}
\fi}
\global\let\hyper@last\relax 
\gdef\HyperFirstAtBeginDocument#1{#1}
\providecommand\HyField@AuxAddToFields[1]{}
\providecommand\HyField@AuxAddToCoFields[2]{}
\citation{RussellAndNorvig}
\citation{wikipediaYob}
\@writefile{toc}{\contentsline {section}{\numberline {1. }Constructing the World}{2}{section.1}}
\@writefile{toc}{\contentsline {section}{\numberline {2. }Time Complexity Analysis}{5}{section.2}}
\@writefile{toc}{\contentsline {section}{\numberline {3. }Program Implementation}{6}{section.3}}
\bibcite{RussellAndNorvig}{1}
\@writefile{toc}{\contentsline {section}{\numberline {4. }Discussion}{7}{section.4}}
\bibcite{wikipediaYob}{2}
\@writefile{lof}{\contentsline {figure}{\numberline {1}{\ignorespaces  UML Diagram for my Wumpus World implementation, drawn in Gliffy.}}{9}{figure.1}}
\newlabel{fig:my-label}{{1}{9}{UML Diagram for my Wumpus World implementation, drawn in Gliffy}{figure.1}{}}
